{
  "total_page": 10,
  "total_count": 50,
  "current_page": 1,
  "albums": [
    {
      "id": 15000,
      "kind": "album",
      "category_id": 6,
      "album_title": "每晚一个睡前故事",
      "album_tags": "儿童故事,可乐姐姐,学前教育,童话,睡前故事",
      "album_intro": "啊~啊~困了吗！来吧，闭上你的眼睛，来听可乐姐姐专门为你讲的睡前故事吧，让我们一起进入甜美的梦乡~",
      "cover_url": "http://fdfs.xmcdn.com/group29/M05/00/14/wKgJXVlQ7vmBi-__AAFgYj4HfQ0789.jpg",
      "cover_url_small": "http://imagev2.xmcdn.com/group29/M05/00/14/wKgJXVlQ7vmBi-__AAFgYj4HfQ0789.jpg!op_type=5&upload_type=album&device_type=ios&name=mobile_small&magick=png",
      "cover_url_middle": "http://imagev2.xmcdn.com/group29/M05/00/14/wKgJXVlQ7vmBi-__AAFgYj4HfQ0789.jpg!op_type=5&upload_type=album&device_type=ios&name=medium&magick=png",
      "cover_url_large": "http://imagev2.xmcdn.com/group29/M05/00/14/wKgJXVlQ7vmBi-__AAFgYj4HfQ0789.jpg!op_type=5&upload_type=album&device_type=ios&name=mobile_large&magick=png",
      "tracks_natural_ordered": false,
      "announcer": {
        "id": 1545344,
        "kind": "user",
        "nickname": "FMT8可乐姐姐",
        "avatar_url": "http://fdfs.xmcdn.com/group37/M07/F4/7D/wKgJoFpFqsyynM2wAAJwOR7ECdM653_web_large.jpg",
        "is_verified": true,
        "anchor_grade": 12
      },
      "play_count": 1002049095,
      "favorite_count": 2317,
      "share_count": 23545,
      "subscribe_count": 199608,
      "include_track_count": 1446,
      "last_uptrack": {
        "track_id": 238014616,
        "track_title": "《蚂蚁王国》Ⅲ~007身经百战",
        "duration": 539,
        "created_at": 1576755003000,
        "updated_at": 1576755117000
      },
      "can_download": true,
      "is_finished": 1,
      "updated_at": 1576755004000,
      "created_at": 1369821080000,
      "is_paid": false,
      "estimated_track_count": 0,
      "album_rich_intro": "",
      "speaker_intro": "",
      "free_track_count": 0,
      "free_track_ids": "",
      "sale_intro": "",
      "expected_revenue": "",
      "buy_notes": "",
      "speaker_title": "",
      "speaker_content": "",
      "has_sample": false,
      "composed_price_type": 0,
      "detail_banner_url": "",
      "short_intro": "啊~啊~困了吗！来吧，闭上你的眼睛，来听可乐姐姐专门为你讲的睡前故事吧，让我们一起进入甜美的梦乡~",
      "is_vipfree": false,
      "is_vip_exclusive": false,
      "meta": "绘本,儿童教育,情绪管理,宝贝睡前故事,可乐姐姐,3-6岁,7-10岁,哄睡,睡前,儿童,中文,普通话,哄睡~,总榜",
      "selling_point": "",
      "recommend_reason": "听可乐姐姐讲故事聪明又伶俐"
    },
    {
      "id": 245037,
      "kind": "album",
      "category_id": 6,
      "album_title": "宝宝经典儿歌",
      "album_tags": "儿童,儿童歌曲,早教,经典儿歌,育儿",
      "album_intro": "网趣宝贝经典儿歌，是把中国最经典的儿歌制作成小朋友喜欢的童趣、可爱、诙谐的动漫，这样不仅能使宝贝的语言能力有很大提高，更能使他们的小头脑思维活跃。网趣儿歌是培养宝宝语言能力的最佳选择。",
      "cover_url": "http://fdfs.xmcdn.com/group4/M02/11/BF/wKgDs1MoE13Cbd5aAADbM_v7Sf0531.jpg",
      "cover_url_small": "http://imagev2.xmcdn.com/group4/M02/11/BF/wKgDs1MoE13Cbd5aAADbM_v7Sf0531.jpg!op_type=5&upload_type=album&device_type=ios&name=mobile_small&magick=png",
      "cover_url_middle": "http://imagev2.xmcdn.com/group4/M02/11/BF/wKgDs1MoE13Cbd5aAADbM_v7Sf0531.jpg!op_type=5&upload_type=album&device_type=ios&name=medium&magick=png",
      "cover_url_large": "http://imagev2.xmcdn.com/group4/M02/11/BF/wKgDs1MoE13Cbd5aAADbM_v7Sf0531.jpg!op_type=5&upload_type=album&device_type=ios&name=mobile_large&magick=png",
      "tracks_natural_ordered": false,
      "announcer": {
        "id": 7618912,
        "kind": "user",
        "nickname": "网趣宝贝",
        "avatar_url": "http://fdfs.xmcdn.com/group4/M02/01/FB/wKgDtFMemxvhi47YAANBMEXmfls768_web_large.png",
        "is_verified": true,
        "anchor_grade": 15
      },
      "play_count": 60967810,
      "favorite_count": 0,
      "share_count": 6150,
      "subscribe_count": 189930,
      "include_track_count": 12,
      "last_uptrack": {
        "track_id": 4608410,
        "track_title": "我和星星打电话",
        "duration": 61,
        "created_at": 1418517900000,
        "updated_at": 1482745480000
      },
      "can_download": true,
      "is_finished": 1,
      "updated_at": 1575975756000,
      "created_at": 1395187200000,
      "is_paid": false,
      "estimated_track_count": 0,
      "album_rich_intro": "",
      "speaker_intro": "",
      "free_track_count": 0,
      "free_track_ids": "",
      "sale_intro": "",
      "expected_revenue": "",
      "buy_notes": "",
      "speaker_title": "",
      "speaker_content": "",
      "has_sample": false,
      "composed_price_type": 0,
      "detail_banner_url": "",
      "short_intro": "网趣宝贝经典儿歌，是把中国最经典的儿歌制作成小朋友喜欢的童趣、可爱、诙谐的动漫，这样不仅能使宝贝的语言能力有很大提高，更能使他们的小头脑思维活跃。网趣儿歌是培养宝宝语言能力的最佳选择。",
      "is_vipfree": false,
      "is_vip_exclusive": false,
      "meta": "儿歌,少儿音乐,中文儿歌,宝宝经典儿歌,网趣儿歌,0-2岁,0-3岁,3-6岁,车上,随时听,孩子,中文,儿歌嗨起来,儿歌嗨起来2,儿歌（总）,启智儿歌,经典儿歌,孩子爱听,总榜",
      "selling_point": "",
      "recommend_reason": "宝宝经典儿歌"
    },
    {
      "id": 257813,
      "kind": "album",
      "category_id": 6,
      "album_title": "睡前故事：一千零一夜",
      "album_tags": "儿童读物,儿童故事,童话,睡前故事,晚安故事",
      "album_intro": "【福利】微信【xmly70】,领取限量福利专辑  hi，亲爱的朋友们，收听专辑送福利啦！即日起，收听过本专辑的用户，即可免费领取《语文新课标必读》《小学生必备文学素养书单》《全国重点小学推荐书单》其中任意1张专辑，价值39元，送给孩子超过30万字的课外阅读量。添加微信小助手xmly70 xmly70 xmly70立即领取吧！ 温柔的声调、标准的普通话、有趣的故事，30余位优秀主播用最好听的声音带宝宝进入甜蜜梦乡。 超过30位优秀主播合力制作，各具特色，深受宝宝和妈妈好评。",
      "cover_url": "http://fdfs.xmcdn.com/group5/M01/63/36/wKgDtVOygRLTfiE4AATGSSgr1kA848.jpg",
      "cover_url_small": "http://imagev2.xmcdn.com/group5/M01/63/36/wKgDtVOygRLTfiE4AATGSSgr1kA848.jpg!op_type=5&upload_type=album&device_type=ios&name=mobile_small&magick=png",
      "cover_url_middle": "http://imagev2.xmcdn.com/group5/M01/63/36/wKgDtVOygRLTfiE4AATGSSgr1kA848.jpg!op_type=5&upload_type=album&device_type=ios&name=medium&magick=png",
      "cover_url_large": "http://imagev2.xmcdn.com/group5/M01/63/36/wKgDtVOygRLTfiE4AATGSSgr1kA848.jpg!op_type=5&upload_type=album&device_type=ios&name=mobile_large&magick=png",
      "tracks_natural_ordered": false,
      "announcer": {
        "id": 9216785,
        "kind": "user",
        "nickname": "喜马拉雅儿童官方",
        "avatar_url": "http://fdfs.xmcdn.com/group49/M08/65/99/wKgKmFvATgqSrkOFAABmXBiu0v8811_web_large.jpg",
        "is_verified": true,
        "anchor_grade": 14
      },
      "play_count": 953204431,
      "favorite_count": 0,
      "share_count": 215421,
      "subscribe_count": 1003393,
      "include_track_count": 1621,
      "last_uptrack": {
        "track_id": 238002474,
        "track_title": "【特别节目】有趣的主题冰雕展——安娜妈咪",
        "duration": 441,
        "created_at": 1576753212000,
        "updated_at": 1576753315000
      },
      "can_download": true,
      "is_finished": 1,
      "updated_at": 1576753212000,
      "created_at": 1401270599000,
      "is_paid": false,
      "estimated_track_count": 0,
      "album_rich_intro": "",
      "speaker_intro": "",
      "free_track_count": 0,
      "free_track_ids": "",
      "sale_intro": "",
      "expected_revenue": "",
      "buy_notes": "",
      "speaker_title": "",
      "speaker_content": "",
      "has_sample": false,
      "composed_price_type": 0,
      "detail_banner_url": "",
      "short_intro": "【福利】微信【xmly70】,领取限量福利专辑  hi，亲爱的朋友们，收听专辑送福利啦！即日起，收听过本专辑的用户，即可免费领取《语文新课标必读》《小学生必备文学素养书单》《全国重点小学",
      "is_vipfree": false,
      "is_vip_exclusive": false,
      "meta": "故事,绘本,儿童文学,童话神话,一千零一夜,一千零一夜,3-6岁,一千零一夜,哄睡,儿童,中文,启蒙故事,启蒙故事2,哄睡~,故事开智,故事开智2,故事（总）,孩子爱听,总榜",
      "selling_point": "",
      "recommend_reason": "1001夜睡前故事，给孩子夜夜好梦"
    },
    {
      "id": 291718,
      "kind": "album",
      "category_id": 2,
      "album_title": "《夜色钢琴曲》",
      "album_tags": "咖啡,日韩,流行,纯音乐,钢琴曲",
      "album_intro": "赵海洋出生于1988年3月31日，专业的钢琴、作曲、编曲、钢琴教师、作品轻盈舒畅，委婉通透，曲曲经典，让人沐在他的音乐月光下，洗涤凡尘心垢。相关曲谱高清音乐某宝搜索：8919005，微博：夜色钢琴赵海洋，",
      "cover_url": "http://fdfs.xmcdn.com/group16/M02/5D/54/wKgDbFcpubOAcFbpAAFgmIO_2l8844.jpg",
      "cover_url_small": "http://imagev2.xmcdn.com/group16/M02/5D/54/wKgDbFcpubOAcFbpAAFgmIO_2l8844.jpg!op_type=5&upload_type=album&device_type=ios&name=mobile_small&magick=png",
      "cover_url_middle": "http://imagev2.xmcdn.com/group16/M02/5D/54/wKgDbFcpubOAcFbpAAFgmIO_2l8844.jpg!op_type=5&upload_type=album&device_type=ios&name=medium&magick=png",
      "cover_url_large": "http://imagev2.xmcdn.com/group16/M02/5D/54/wKgDbFcpubOAcFbpAAFgmIO_2l8844.jpg!op_type=5&upload_type=album&device_type=ios&name=mobile_large&magick=png",
      "tracks_natural_ordered": false,
      "announcer": {
        "id": 16550049,
        "kind": "user",
        "nickname": "夜色钢琴曲赵海洋",
        "avatar_url": "http://fdfs.xmcdn.com/group19/M01/40/75/wKgJK1eRC_vyMOvHAAIZjZ50IX8839_web_large.jpg",
        "is_verified": true,
        "anchor_grade": 15
      },
      "play_count": 676632969,
      "favorite_count": 0,
      "share_count": 69927,
      "subscribe_count": 1422433,
      "include_track_count": 322,
      "last_uptrack": {
        "track_id": 237004192,
        "track_title": "《夜色钢琴曲》天使的翅膀 - 赵海洋",
        "duration": 224,
        "created_at": 1576418636000,
        "updated_at": 1576419228000
      },
      "can_download": true,
      "is_finished": 1,
      "updated_at": 1576419228000,
      "created_at": 1414258385000,
      "is_paid": false,
      "estimated_track_count": 0,
      "album_rich_intro": "",
      "speaker_intro": "",
      "free_track_count": 0,
      "free_track_ids": "",
      "sale_intro": "",
      "expected_revenue": "",
      "buy_notes": "",
      "speaker_title": "",
      "speaker_content": "",
      "has_sample": false,
      "composed_price_type": 0,
      "detail_banner_url": "",
      "short_intro": "赵海洋出生于1988年3月31日，专业的钢琴、作曲、编曲、钢琴教师、作品轻盈舒畅，委婉通透，曲曲经典，让人沐在他的音乐月光下，洗涤凡尘心垢。相关曲谱高清音乐某宝搜索：8919005，微博：夜色钢琴赵海",
      "is_vipfree": false,
      "is_vip_exclusive": false,
      "meta": "夜色钢琴曲,歌单,原创音乐,催眠,纯音乐,轻音乐,睡前,孕妇,文青,音乐人,有视频,总榜",
      "selling_point": "",
      "recommend_reason": "全站最高播放量钢琴曲 | 沐在的音乐月光下，洗涤凡尘心垢"
    }
  ]
}